…
bs_samples <- getBootstrapSamples(model_fits = model_fits,
                                  n_samples  = 10, # speeding up example run time
                                  doses      = c(0, 6, 8))
                      
bs_samples
#> # A tibble: 90 × 5
#>    sample_id model        dose   abs  diff
#>        <int> <chr>       <dbl> <dbl> <dbl>
#>  1         1 avgFit          0  1.07  0   
#>  2         1 exponential     0  1.36  0   
#>  3         1 linear          0  1.07  0   
#>  4         1 avgFit          6  6.82  5.75
#>  5         1 exponential     6  6.50  5.14
#>  6         1 linear          6  6.82  5.75
#>  7         1 avgFit          8  8.73  7.66
#>  8         1 exponential     8  8.69  7.33
#>  9         1 linear          8  8.73  7.66
#> 10         2 avgFit          0  2.01  0   
#> # ℹ 80 more rows
```
